클래스: 객체를 표현
1. 클래스 정의
class 클래스명:
  '''클래스 설명'''
  #변수정의#클래스변수(static변수)
  cnt=0
  #메서드 정의
  def f1(self, val):#첫 파라메터는 현재 객체
    #객체 멤버변수정의 및 실행코드

생성자: __init__(self, v1, v2..):

소멸자: __del__(self):

2. 데이터 은닉성
private:__변수명
public : 변수명

3. 빈 클래스
실시간으로 데이터를 읽어 오거나 데이터의 포맷이 자주 바뀌는 경우 빈 클래스로 만들었다가 추후에 멤버변수나 메서드 추가하여 사용

class 클래스명:
   pass

class Test:
  pass

t1 = Test()
t1.val1 = 'aaa'
t1.val2 = '123'
...

4. 정적클래스
클래스 변수와 정적 메서드로만 구성된 클래스로 객체를 모델링하는 것 보다는 기능을 제공하기 위한 클래스에서 주로 사용

class Test:
   cnt=0
   def staticMethod():
       .....

멤버에 접근 시 객체이름이 아닌 클래스 이름으로 접근.

5. 내장 속성
__doc__ : 클래스 설명. 클래스 정의 시 첫 줄에 '''~~'''로 작성
__name__ : 클래스 이름
__module__ : 소속된 모듈명
__bases__ : 현재 클래스가 상속받은 부모 클래스의 목록을 갖는 튜플
__dict__ : 클래스 정보
